Menus:
    <List all systems>
    All games by Name
        All Games
        Num/Symbol
        A
        B
        ...
    All games by Year
    Exit

Keys:
    Forward: R>, G
    Back: L>, D
    Up: U>, R
    Down: D>, F
    Start: L-CTRL, A
